{
  "filterList": [
    {
      "caption": "period",
      "dim": "[Dim_Date.DT_FULL (Calendar)]",
      "datatype": "datetime",
      "groups":[
        {
          "groupName": "current",
          "allowedValues": ["m", "q","y"],
          "collapsed": "collapsed"
        },
        {
          "groupName": "past",
          "allowedValues": ["4m", "4w"],
          "collapsed": "collapsed",
          "last":true
        },
        {
          "groupName": "custom",
          "allowedValues": ["custom"],
          "collapsed": "collapsed",
          "separated":true
        }
      ],
      "members": [


        {
          "value": "m",
          "level": "months",
          "dim": "[Dim_Date.DSC_RETAIL_WEEK]",
          "isDisabled": "",
          "selected": ""
        },
        {
          "value": "q",
          "level": "quarters",
          "dim": "[Dim_Date.DSC_RETAIL_WEEK]",
          "isDisabled": "",
          "selected": ""
        },
        {
          "value": "y",
          "level": "years",
          "dim": "[v_F_SPENDING_PLANNING.DSC_MONTH]",
          "isDisabled": "",
          "selected": ""
        },
        {
          "value": "4m",
          "level": "days",
          "dim": "[Dim_Date.DSC_RETAIL_WEEK]",
          "isDisabled": "",
          "selected": ""
        },{
          "value": "4w",
          "level": "days",
          "dim": "[Dim_Date.DSC_RETAIL_WEEK]",
          "isDisabled": "",
          "selected": ""
        },
        {
          "value": "custom",
          "level": "days",
          "dim": "[Dim_Date.DSC_RETAIL_WEEK]",
          "isDisabled": "",
          "selected": "",
          "collapsed": ""
        }
      ],
      "defaultValue": "y"
    },
    {
      "caption": "Country",
      "dim": "[Dim_COUNTRY_CHANNEL_TYPE.DSC_COUNTRY_CODE]",
      "datatype": "text",
      "groups": [
        {
          "groupName": "North America",
          "allowedValues": ["US"],
          "collapsed": "collapsed"
        },
        {
          "groupName": "EU",
          "allowedValues": [
            "DE",
            "UK"
          ],
          "collapsed": ""
        },
        {
          "groupName": "APAC",
          "allowedValues": ["AU"],
          "collapsed": ""
        }
      ],
      "defaultValue": "US",
      "affect": [
        "[Dim_COUNTRY_CHANNEL_TYPE.DSC_CHANNEL_L1]"
      ]
    },
    {
      "caption": "channel",
      "dim": "[Dim_COUNTRY_CHANNEL_TYPE.DSC_CHANNEL_L1]",
      "datatype": "text",
      "hasAll": true,
      "loadDynamic": true,
      "multiSelection": true,
      "defaultValue": "ALL",
      "scope": [
        "[Dim_COUNTRY_CHANNEL_TYPE.DSC_COUNTRY_CODE]"
      ],
      "persistentScope": [
        {
          "dim": "[Dim_COUNTRY_CHANNEL_TYPE.DSC_CHANNEL_TYPE]",
          "filter": {
            "members": ["DIGITAL"]
          },
          "datatype": "text",
          "panel": "scope"
        }
      ]
    }
  ]
}