{
  "filterList": [
    {
      "caption": "Country",
      "dim": "[Customers.Country]",
      "datatype": "text",
      "groups": [
        {
          "groupName": "North America",
          "allowedValues": [
            "USA"
          ],
          "collapsed": "collapsed"
        },
        {
          "groupName": "EU",
          "allowedValues": [
            "Italy",
            "Spain"
          ],
          "collapsed": ""
        }

      ],
      "defaultValue": "USA",
      "affect": [
      ]
    }
  ]
}