{
  "filterGroups": [
    {
      "caption": "Period",
      "defaultJaql" : "Year to date",
      "column" : "[dt_full (Calendar)]",
      "jaqls": [
        {
          "type": "date",
          "subtype" : "YTD",
          "datatype": "datetime",
          "dim": "[dt_full (Calendar)]",
          "caption": "Year to date",
          "level" : "days",
          "resolutionLevel" : "months",
          "filter" : {
            "from": "",
            "to": ""
          }
        },
        {
          "type": "date",
          "subtype" : "QTD",
          "datatype": "datetime",
          "dim": "[dt_full (Calendar)]",
          "caption": "Quarter to date",
          "level" : "days",
          "resolutionLevel" : "days",
          "filter" : {
            "from": "",
            "to": ""
          }
        },
        {
          "type": "date",
          "subtype" : "MTD",
          "datatype": "datetime",
          "dim": "[dt_full (Calendar)]",
          "caption": "Month to date",
          "level" : "days",
          "resolutionLevel" : "days",
          "filter" : {
            "from": "",
            "to": ""
          }
        },
        {
          "type": "date",
          "subtype" : "P12M",
          "datatype": "datetime",
          "dim": "[dt_full (Calendar)]",
          "caption": "Past 12 monthes",
          "level" : "days",
          "resolutionLevel" : "months",
          "filter" : {
            "from": "",
            "to": ""
          }
        },
        {
          "type": "date",
          "subtype" : "P12W",
          "datatype": "datetime",
          "dim": "[dt_full (Calendar)]",
          "caption": "Past 12 weeks",
          "level" : "days",
          "resolutionLevel" : "days",
          "filter" : {
            "from": "",
            "to": ""
          }
        },
        {
          "type": "date",
          "subtype" : "P30D",
          "datatype": "datetime",
          "dim": "[dt_full (Calendar)]",
          "caption": "Past 30 days",
          "level" : "days",
          "resolutionLevel" : "days",
          "filter" : {
            "from": "",
            "to": ""
          }
        },
        {
          "type": "dateRange",
          "datatype": "datetime",
          "dim": "[dt_full (Calendar)]",
          "caption": "Custom",
          "level" : "days",
          "resolutionLevel" : "months",
          "filter" : {
            "from": "",
            "to": ""
          }
        }
      ]
    },
    {
      "caption": "Site",
      "defaultJaql" : "ALL",
      "column" : "[DCP_Data.Site]",
      "jaqls": [
        {
          "type": "member",
          "datatype": "text",
          "dim": "[DCP_Data.Vertical]",
          "caption": "ALL",
          "filter" : {"all" : true}
        }
      ],
      "affectedBy" : [
      ],
      "affect": [
      ]
    },
    {
      "caption": "Vertical",
      "defaultJaql" : "ALL",
      "column" :"[DCP_Data.Vertical]",
      "isDirty" : true,
      "jaqls": [
        {
          "type": "member",
          "datatype": "text",
          "dim": "[DCP_Data.Vertical]",
          "caption": "ALL",
          "filter" : {"all" : true}
        },
        {
          "type": "memberSelection",
          "datatype": "text",
          "dim": "[DCP_Data.Vertical]",
          "caption": "Custom",
          "filter" : {"members" : []}
        }
      ],
      "affectedBy" : [
      ],
      "affect": [
      ],
      "cascadingFilters" : [
      ]
    },
    {
      "caption": "L3 Category",
      "defaultJaql" : "ALL",
      "column" :"[DCP_Data.Level3Category]",
      "isDirty" : true,
      "jaqls": [
        {
          "type": "member",
          "datatype": "text",
          "dim": "[DCP_Data.Level3Category]",
          "caption": "ALL",
          "filter" : {"all" : true}
        },
        {
          "type": "memberSelection",
          "datatype": "text",
          "dim": "[DCP_Data.Level3Category]",
          "caption": "Custom",
          "filter" : {"members" : []}
        }
      ],
      "affectedBy" : [
      ],
      "affect": [
      ],
      "cascadingFilters" : [
      ]
    },
    {
      "caption": "Brand",
      "defaultJaql" : "ALL",
      "column" :"[DCP_Data.Brand]",
      "isDirty" : true,
      "jaqls": [
        {
          "type": "member",
          "datatype": "text",
          "dim": "[DCP_Data.Brand]",
          "caption": "ALL",
          "filter" : {"all" : true}
        },
        {
          "type": "memberSelection",
          "datatype": "text",
          "dim": "[DCP_Data.Brand]",
          "caption": "Custom",
          "filter" : {"members" : []}
        }
      ],
      "affectedBy" : [
      ],
      "affect": [
      ],
      "cascadingFilters" : [
      ]
    },
    {
      "caption": "Competitor",
      "defaultJaql" : "ALL",
      "column" :"[DCP_Data.Competitor]",
      "isDirty" : true,
      "jaqls": [
        {
          "type": "member",
          "datatype": "text",
          "dim": "[DCP_Data.Competitor]",
          "caption": "ALL",
          "filter" : {"all" : true}
        },
        {
          "type": "memberSelection",
          "datatype": "text",
          "dim": "[DCP_Data.Competitor]",
          "caption": "Custom",
          "filter" : {"members" : []}
        }
      ],
      "affectedBy" : [
      ],
      "affect": [
      ],
      "cascadingFilters" : [
      ]
    }
  ]
}